1 1.943147 2.73955771763 6.864789
4 0.701088 1.27588555321 2.727941
8 0.531957 0.960707957372 2.248422
12 0.505051 0.905594016987 1.838569
16 0.527536 0.935074153526 2.154316
20 0.487683 0.921838808226 4.538625
24 0.519758 1.00255186378 3.737354
28 0.531988 0.982007455128 4.585184
32 0.591328 0.976555783654 1.833808
