{
  "sections": [{
    "heading": "An atlas of carbon nanotube optical transitions",
    "text": ""
  }, {
    "heading": "Kaihui Liu1,2, Jack Deslippe1,3, Fajun Xiao1,4, Rodrigo B. Capaz1,5, Xiaoping Hong1, Shaul Aloni6, Alex Zettl1,3, Wenlong Wang2, Xuedong Bai2, Steven G. Louie1,3, Enge Wang7* and Feng Wang1,3*",
    "text": "Electron–electron interactions are significantly enhanced in one-dimensional systems1, and single-walled carbon nanotubes provide a unique opportunity for studying such interactions and the related many-body effects in one dimension2–4. However, single-walled nanotubes can have a wide range of diameters and hundreds of different structures, each defined by its chiral index (n,m)5,6, where n and m are integers that can have values from zero up to 30 or more. Moreover, one-third of these structures are metals and two-thirds are semiconductors, and they display optical resonances at many different frequencies. Systematic studies of many-body effects in nanotubes would therefore benefit from the availability of a technique for identifying the chiral index of a nanotube based on a measurement of its optical resonances, and vice versa. Here, we report the establishment of a structure–property ‘atlas’ for nanotube optical transitions based on simultaneous electron diffraction measurements of the chiral index and Rayleigh scattering measurements of the optical resonances7,8 of 206 different single-walled nanotube structures. The nanotubes, which were suspended across open slit structures on silicon substrates, had diameters in the range 1.3–4.7 nm. We also use this atlas as a starting point for a systematic study of many-body effects in the excited states of single-walled nanotubes9–16. We find that electron–electron interactions shift the optical resonance energies by the same amount for both metallic and semiconducting nanotubes, and that this shift (which corresponds to an effective Fermi velocity renormalization) increases monotonically with nanotube diameter. This behaviour arises from two sources: an intriguing cancellation of long-range electron–electron interaction effects, and the dependence of short-range electron– electron interactions on diameter10,11.\nThe results for three representative single-walled carbon nanotubes are shown in Fig. 1. From the electron diffraction pattern for the first of these nanotubes (Fig. 1a) we determine its chiral index to be (18,7), which means that this is a semiconducting nanotube with a diameter of 1.75 nm. The second nanotube (Fig. 1b) has a chiral index of (30,22), which means that it is also semiconducting (with a diameter of 3.54 nm). The third nanotube (Fig. 1c) has a chiral index of (24,24), which means that it is metallic with a diameter of 3.25 nm. Each nanotube also exhibits distinct optical resonances in its Rayleigh spectrum (Fig. 1d–f). Our data complement previous fluorescence studies of nanotubes with diameters in the range 0.6–1.3 nm (refs 17,18), and together they can be used as an atlas for determining the chiral index of a single-walled nanotube from a measurement of its optical resonances, and vice versa (Supplementary Section S4).\nA number of techniques can be used to determine the chiral index and optical resonances of single-walled nanotubes (hereafter\ncalled nanotubes), but they are all limited in various ways. Fluorescence excitation spectroscopy, for example, allows the chiral index to be determined from measurements of the fluorescence, but only for a small subset of semiconducting nanotubes17. Raman spectroscopy is a more general technique, in principle, but it suffers from large uncertainties due to the presence of many overlapping resonant peaks from ensemble measurements19–21. The uncertainty in our determination of the optical resonances for all nanotubes is less than 20 meV. This is significantly more accurate than previous comprehensive optical assignments based on Raman mapping, where the difference between the measured and predicted optical transition energies is greater than 100 meV for many nanotubes21.\nIt should be noted that our results are based on suspended nanotubes. It is known that environmental effects, such as the presence of a substrate or surrounding micelles, can redshift the optical transition, predominantly due to dielectric screening. A comparison of nanotubes suspended in air and nanotubes embedded in micelles shows that this redshift is relatively constant at≏20 meV for different nanotubes18, and similar redshifts are expected for nanotubes deposited on substrates. Accordingly, a suitable correction should be made when characterizing nanotubes that are not suspended in air.\nThe relationship between the chiral index and the optical resonances of nanotubes reported here allows for a systematic examination of excited-state properties in one-dimensional nanotubes. Although the optical transitions in nanotubes are excitonic in nature, a convenient scheme by which to categorize the optical transitions in an (n,m) nanotube is the zone-folding technique, in which the periodic boundary condition around the nanotube circumference leads to a quantization of wave vector (k), described by parallel lines separated by 2/d in the graphene Brillouin zone5,6. In metallic nanotubes, one of the parallel k-lines passes through the K-point, which occurs when mod(n–m,3)¼ 0 (Fig. 2a). The other nanotubes are semiconducting with mod(n–m,3)¼ 1 or 2 (Fig. 2b). Each parallel k-line describes one pair of conduction and valence sub-bands in the nanotube. Transitions at the bandgaps of such sub-band pairs lead to strong optical resonances, and these transitions are traditionally labelled Sii for semiconducting and Mii for metallic nanotubes, where i is the sub-band index. Equivalently, we can introduce an integer p (¼ 1,2,3,4,5,6, . . .) to index optical transitions in both semiconducting and metallic nanotubes in the order of S11 , S22 , M11 , S33 , S44 , M22 , S55 , S66 , M33 , S77 , . . . (Table 1). Each nanotube optical transition can be associated with a specific wave vector kp (n,m) (for example, red dots in Fig. 2a,b) in the graphene Brillouin zone that varies with nanotube chirality (n,m) and transition index p (for a detailed relation see Supplementary Section S2). The magnitude of kp\n(n,m) has a value of p× 2/(3d). The one-to-one mapping between a nanotube optical resonance and a wave vector in the graphene Brillouin zone provides a\n1Department of Physics, University of California at Berkeley, Berkeley, California 94720, USA, 2Institute of Physics, Chinese Academy of Sciences, Beijing 100190, China, 3Materials Science Division, Lawrence Berkeley National Laboratory, Berkeley, California 94720, USA, 4School of Science, Northwestern Polytechnic University, Xi’an 710072, China, 5Instituto de Fı́sica, Universidade Federal do Rio de Janeiro, Caixa Postal 68528, Rio de Janeiro, RJ 21941-972, Brazil, 6The Molecular Foundry, Lawrence Berkeley National Laboratory, Berkeley, California 94720, USA, 7International Center for Quantum Materials, School of Physics, Peking University, Beijing 100871, China. *e-mail: fengwang76@berkeley.edu; egwang@pku.edu.cn\nLETTERS PUBLISHED ONLINE: 15 APRIL 2012 | DOI: 10.1038/NNANO.2012.52\nNATURE NANOTECHNOLOGY | VOL 7 | MAY 2012 | www.nature.com/naturenanotechnology 325\n© 2012 M acmillan Publishers Limited. All rights reserved.\n(30,22) (24,24)\n1.5 2.0 2.5 1.5 2.0 2.5 1.5 2.0 2.5\nS33 S44 S55 S66\nS77\nM22\nM33\nTEM/laser beam\nEnergy (eV)Energy (eV) Energy (eV)\nIn te\nn si\nty (a\n.u .)\nIn te\nn si\nty (a\n.u .)\nIn te\nn si\nty (a\n.u .)\na\nd e\nb c\nf\n(18,7)\nLETTERS NATURE NANOTECHNOLOGY DOI: 10.1038/NNANO.2012.52\nTo describe the effective dispersion such as that in Fig. 2c, we introduce an empirical formula\nEp(k) = 2h − nF( p) × k+ b× k 2 + h( p) × k2 cos(3u) (1)\nHere, k and u are polar coordinates for the magnitude and direction of wave vector k. The dominating first term characterizes the linear Dirac cone in the graphene band structure with an effective Fermi velocity vF(p). The second and third terms describe, respectively, deviation from the linear dispersion away from the Dirac point and deviation from a circular cone due to the graphene trigonal symmetry. The p-dependent effective Fermi velocity vF(p) and anisotropy prefactor h(p) are included to account for nanotubespecific physics. Using this formula we were able to fit all 522 transitions from 206 individual nanotubes in our study with an overall uncertainty of less than 20 meV. Table 1 summarizes the values of vF(p), b and h(p) in equation (1) that were used to fit our data, as well as those obtained from fluorescence excitation spectroscopy17,18. Figure 3a shows the k-region covered by experimentally observed optical transitions for p¼ 1 to 10.\nWe first examine the renormalization of vF(p), which characterizes the angle-independent change in the slope of the Ep–k dispersion. This angle-independent component can be conveniently obtained by slicing the full Ep–k dispersion (Fig. 2c) along the armchair direction (that is, with u¼ 308 and 2108 in equation (1)). Figure 3b displays the results for p¼ 2 (orange curve) and p¼ 9 (blue curve). They are symmetric over the K-point (k¼ 0), but exhibit a clearly different slope, or effective vF. The overall dependence of vF(p) on p (or equivalently on d̄ on the top axis) is shown in Fig. 3c. It shows a renormalization of the ‘effective Fermi velocity’ (vF) in nanotubes. This renormalization arises from many-body effects due to electron–electron interactions, and it varies between different nanotube species.\nThe magnitude of renormalization in the Fermi velocity depends on both the nanotube diameter and the k-vector region in the graphene Brillouin zone. Because experimental data for transition p¼ 1 (S11) have k values much smaller than other transitions (Fig. 3a), its comparison to other transitions requires that the kdependent renormalization effects be taken into account. Qualitatively, we can attribute the observed relatively large effective Fermi velocity for p¼ 1 transitions to this k-dependence, but a quantitative theoretical description of the k-dependence of the renormalization is beyond our experimental work. Transitions p¼ 2 to 10, however, cover largely the same overlapped k-region (Fig. 3a). They provide a unique opportunity for us to isolate the diameter dependence of the renormalization of the Fermi velocity, which can be described by vF(p)¼ (1.277–0.267/p)× 10\n6 m s21 (solid line of Fig. 3c). It shows two surprising behaviours: (i) a higher effective vF, which is associated with enhanced electron–electron interactions9–12, is observed in larger-diameter nanotubes; and (ii) vF values for semiconducting and metallic nanotube transitions fall on exactly the same curve. These experimental observations provide a striking demonstration of the different effects of the long-range and shortrange components of electron–electron interactions in excited states of one-dimensional nanotubes, first described theoretically in the pioneering work of Kane and Mele10,11.\nIt has been shown theoretically that the long-range interactions have cancelling effects on bandgap renormalization and exciton formation9–16. In particular, ref. 11 provides a rigorous argument that\nTable 1 | Integer p and fitting parameters nF, h and b of empirical equation (1) (described in the text for different optical transitions).\nTransition p nF (10 6 m s21) h (eV nm2) b (eV nm2) S11 1 1.229 0.142 –0.173 S22 2 1.152 0.097 M11 3 1.176 0.068 S33 4 1.221 0.058 S44 5 1.226 0.058 M22 6 1.236 0.058 S55 7 1.241 0.047 S66 8 1.244 0.052 M33 9 1.248 0.047 S77 10 1.256 0.054\nS11 and S22 data are from ref. 17 with slightly shifted energy (20 meV for S11 and 15 meV for S22) to compensate for the micelle-induced redshifts18. To obtain the resonance energy for a specific optical transition in an (n,m) nanotube, one can plug the listed parameters into equation (1) and use (k, u) values obtained from zone folding.\nNATURE NANOTECHNOLOGY DOI: 10.1038/NNANO.2012.52 LETTERS\nNATURE NANOTECHNOLOGY | VOL 7 | MAY 2012 | www.nature.com/naturenanotechnology 327\n© 2012 M acmillan Publishers Limited. All rights reserved.\n2 3 4 5 6 7 8 9 10\n40\n60\n80\n100\nb\nη (\nm eV\nn m\n2 )\np\na\n−2 −1 0\n0.0\n0.5\n1.0\n1.5\n2.0\n2.5\nθ = 180° θ = 0°\np = 2 p = 9\n1 2\nE p (k\n) (e\nV )\n0.9 1.6 2.3 3.0 3.7 4.4\nk (nm–1)\nd (nm) −\nLETTERS NATURE NANOTECHNOLOGY DOI: 10.1038/NNANO.2012.52\n11. Kane, C. L. & Mele, E. J. Electron interactions and scaling relations for optical excitations in carbon nanotubes. Phys. Rev. Lett. 93, 197402 (2004). 12. Perebeinos, V., Tersoff, J. & Avouris, P. Scaling of excitons in carbon nanotubes. Phys. Rev. Lett. 92, 257402 (2004). 13. Spataru, C. D., Ismail-Beigi, S., Benedict, L. X. & Louie, S. G. Excitonic effects and optical spectra of single-walled carbon nanotubes. Phys. Rev. Lett. 92, 077402 (2004). 14. Chang, E., Bussi, G., Ruini, A. & Molinari, E. Excitons in carbon nanotubes: an ab initio symmetry-based approach. Phys. Rev. Lett. 92, 196401 (2004). 15. Zhao, H. B. & Mazumdar, S. Electron–electron interaction effects on the optical excitations of semiconducting single-walled carbon nanotubes. Phys. Rev. Lett. 93, 157402 (2004). 16. Wang, F. et al. Observation of excitons in one-dimensional metallic single-walled carbon nanotubes. Phys. Rev. Lett. 99, 227401 (2007). 17. Bachilo, S. M. et al. Structure-assigned optical spectra of single-walled carbon nanotubes. Science 298, 2361–2366 (2002). 18. Lefebvre, J., Fraser, J. M., Homma, Y. & Finnie, P. Photoluminescence from single-walled carbon nanotubes: a comparison between suspended and micelleencapsulated nanotubes. Appl. Phys. A 78, 1107–1110 (2004). 19. Fantini, C. et al. Optical transition energies for carbon nanotubes from resonant Raman spectroscopy: environment and temperature effects. Phys. Rev. Lett. 93, 147406 (2004). 20. Telg, H. et al. Chirality distribution and transition energies of carbon nanotubes. Phys. Rev. Lett. 93, 177401 (2004). 21. Araujo, P. T. et al. Third and fourth optical transitions in semiconducting carbon nanotubes. Phys. Rev. Lett. 98, 067401 (2007). 22. Novoselov, K. S. et al. Two-dimensional gas of massless Dirac fermions in graphene. Nature 438, 197–200 (2005). 23. Zhang, Y. B., Tan, Y. W., Stormer, H. L. & Kim, P. Experimental observation of the quantum Hall effect and Berry’s phase in graphene. Nature 438, 201–204 (2005). 24. Blase, X., Benedict, L. X., Shirley, E. L. & Louie, S. G. Hybridization effects and metallicity in small radius carbon nanotubes. Phys. Rev. Lett. 72, 1878–1881 (1994). 25. Kane, C. L. & Mele, E. J. Size, shape, and low energy electronic structure of carbon nanotubes. Phys. Rev. Lett. 78, 1932–1935 (1997). 26. Reich, S., Thomsen, C. & Ordejon, P. Electronic band structure of isolated and bundled carbon nanotubes. Phys. Rev. B 65, 155411 (2002). 27. Huang, S. M., Cai, X. Y. & Liu, J. Growth of millimeter-long and horizontally aligned single-walled carbon nanotubes on flat substrates. J. Am. Chem. Soc. 125, 5636–5637 (2003). 28. Liu, K. H. et al. Intrinsic radial breathing oscillation in suspended single-walled carbon nanotubes. Phys. Rev. B 83, 113404 (2011). 29. Liu, Z. J. & Qin, L-C. A direct method to determine the chiral indices of carbon nanotubes. Chem. Phys. Lett. 408, 75–79 (2005). 30. Liu, K. H. et al. Direct determination of atomic structure of large-indexed carbon nanotubes by electron diffraction: application to double-walled nanotubes. J. Phys. D 42, 125412 (2009)."
  }, {
    "heading": "Acknowledgements",
    "text": "This study was supported by the US National Science Foundation (NSF, CAREER grant 0846648, DMR10-1006184 and EEC-0832819 to the NSF Center for Integrated Nanomechanical Systems), the US Department of Energy (DOE, DE-AC02-05CH11231 and DE-AC02-05CH11231 to the Molecular Foundry), the National Natural Science Foundation of China (91021007, 10874218, 10974238, 20973195 and 50725209) and the Chinese Ministry of Science and Technology (2009DFA01290). Computational resources were provided by the NSF (through TeraGrid resources at the National Institute for Computational Sciences) and the DOE (through the National Energy Research Scientific Computing Centre at the Lawrence Berkeley National Laboratory). R.B.C. acknowledges support from Brazilian funding agencies CNPq, FAPERJ and INCT – Nanomateriais de Carbono."
  }, {
    "heading": "Author contributions",
    "text": "F.W., E.W. and K.L. conceived the experiment. K.L., F.X., X.H. and F.W. carried out the optical measurements. K.L., S.A. and X.B. carried out structural characterization. K.L., W.W. and A.Z. contributed to growing the sample. J.D., R.B.C., S.G.L. and F.W. performed theoretical analysis. All authors discussed the results and wrote the paper."
  }, {
    "heading": "Additional information",
    "text": "The authors declare no competing financial interests. Supplementary information accompanies this paper at www.nature.com/naturenanotechnology. Reprints and permission information is available online at http://www.nature.com/reprints. Correspondence and requests for materials should be addressed to F.W. or E.W.\nNATURE NANOTECHNOLOGY DOI: 10.1038/NNANO.2012.52 LETTERS\nNATURE NANOTECHNOLOGY | VOL 7 | MAY 2012 | www.nature.com/naturenanotechnology 329\n© 2012 M acmillan Publishers Limited. All rights reserved.\nSUPPLEMENTARY INFORMATION DOI: 10.1038/NNANO.2012.52\nNATURE NANOTECHNOLOGY | www.nature.com/naturenanotechnology 1\nAn Atlas of Carbon Nanotube Optical Transitions\nKaihui Liu, Jack Deslippe, Fajun Xiao, Rodrigo B. Capaz, Xiaoping Hong, Shaul Aloni,\nAlex Zettl, Wenlong Wang, Xuedong Bai, Steven G. Louie, Enge Wang, Feng Wang\n© 2012 M acmillan Publishers Limited. All rights reserved.\n2 NATURE NANOTECHNOLOGY | www.nature.com/naturenanotechnology\nSUPPLEMENTARY INFORMATION DOI: 10.1038/NNANO.2012.52\n1. Isolated single-wall carbon nanotubes suspended on the open slit\n10 nm\nslit\na\nb\n100 µm\nFigure S1. (a) Scanning electron microscope image of suspended nanotubes. The\nnanotubes are controlled to be well separated from each other with an average separation\nover 30 μm. By utilizing the slit edges as the spatial markers, we can reliably locate any\ngiven nanotube in both transmission electron microscope and optical microscopy setup.\n(b) High-resolution transmission electron micrograph of a nanotube. It is seen to be\nsingle-wall character with clean surface.\n2. The wavevector k (n,m) ii corresponding to the bandgap of the ith sub-band pair in\nan (n,m) nanotube\nThe ith optical resonance in an (n,m) nanotube arises from the electronic transition at\nthe bandgap of ith sub-band pair in the nanotube, and it corresponds to a unique\nwavevector k . The wavevector k can be described in the polar coordinate by (k,\nθ). The magnitude k depends on nanotube diameter (d) and ith transition, and it has a\n(n,m) ii\n(n,m) ii\n×\nθ\nα\nθ α π\nθ α π\nθ α\nθ α π\nα β η γ θ θi i i\n© 2012 M acmillan Publishers Limited. All rights reserved.\nNATURE NANOTECHNOLOGY | www.nature.com/naturenanotechnology 3\nSUPPLEMENTARY INFORMATIONDOI: 10.1038/NNANO.2012.52\n10 nm\nslit\na\nb\n100 \nμ\nθ\nvalue of p×2/(3d) for all nanotube species. The relation between integers p and i is listed\nin Table S1. The polar angle θ is related to the nanotube chiral angle\n-1α=tan ( 3m/(2n+m)) in the following way.\nSemiconducting nanotubes:\nθ for ith transition in semiconducting nanotubes with mod(n-m,3)=1. =α+i*π\nfor ith transition in semiconducting nanotubes with mod(n-m,3)=2. θ=α+(i+1)*π\nMetallic nanotubes (mod(n-m, 3)=0): Two sub-bands exist for ith transition.\nθ for the higher energy sub-band. =α\nθ for the lower energy sub-band. =α+π\n3. Empirical fitting formula with more fitting parameters\nThe empirical formula Eq. 1 in the text captures the main physics in nanotube optical\ntransitions and gives out a small overal uncertainty of less than 20 meV. However, we\ncan have an even better phenomenological description to the experimental data set using\na formula with more fitting parameters. For the pth nanotube optical transitions we can\nuse the fitting function 1\nEp(k)\n(Eq. S1) 2=α(p) k+β klog1.5k+k [η(p)+γ(p)cos(3θ)]cos(3θ).i i i\nThis fitting gives slightly lower overall uncertainty of less than 15 meV, and it captures\nthe trigonal warping effects more accurately for nanotubes with small chiral angles. The\nfitting parameters are listed in Table S1.\n© 2012 M acmillan Publishers Limited. All rights reserved.\n4 NATURE NANOTECHNOLOGY | www.nature.com/naturenanotechnology\nSUPPLEMENTARY INFORMATION DOI: 10.1038/NNANO.2012.52\nTable S1. Integer p and fitting parameters for different optical transitions\nTransition p α\n(eV·nm) η (eV·nm 2 ) γ (eV·nm 2 ) β (eV·nm)\nS11 1 1.532 0.148 -0.056\n-0.620\nS22 2 1.474 0.097 -0.009 M11 3 1.504 0.068 -0.002 S33 4 1.556 0.058 0.014 S44 5 1.560 0.058 0.016 M22 6 1.576 0.061 0.009 S55 7 1.588 0.050 0.000 S66 8 1.593 0.052 0.000 M33 9 1.596 0.058 0.011 S77 10 1.608 0.058 0.004\n4. Caption for the data table file\nThe table describes systematically chirality-dependent optical transitions of nanotubes\nin the visible and near infrared range. The column and row of the table are indexed by n\nand |n-m|, which uniquely defines the chiral index (n,m) of a given nanotube. In each\ntable cell, we list the integer transition index p and the corresponding transition energy Ep\nin unit of eV. The experimental data of over 200 individual nanotubes from this work is\ndisplayed in red color. Complementary data from fluorescence excitation spectroscopy 2, 3\nare also included and displayer in orange color. Together they represent to about 2/5 of\nall nanotube species in the table. With straightforward interpolation, we determine the\noptical transition energies of the rest nanotubes, and these interpolated results are\ndisplayed in black.\nSeveral systematic behaviors can be easily identified from this table. In each row, the\nnanotube species vary periodically as metallic, semiconducting, semiconducting as a\nfunction of |n-m|. The metallic and semiconducting nanotubes are color coded in green\nand blue, and the p index of their optical transitions have values of 3,6,9… and\n© 2012 M acmillan Publishers Limited. All rights reserved.\nNATURE NANOTECHNOLOGY | www.nature.com/naturenanotechnology 5\nSUPPLEMENTARY INFORMATIONDOI: 10.1038/NNANO.2012.52\nα η γ β\n1,2,4,5,7…, respectively. In each column, the diameter of the nanotube becomes larger\nwith the column index n, and the corresponding transition index p increases\nmonotonically for transitions in the same energy range. More detailed analysis and\nunderstanding of the table is described in the text.\n© 2012 M acmillan Publishers Limited. All rights reserved.\n6 NATURE NANOTECHNOLOGY | www.nature.com/naturenanotechnology\nSUPPLEMENTARY INFORMATION DOI: 10.1038/NNANO.2012.52\nReferences:\n1  Kane, C. L. & Mele, E. J. Electron interactions and scaling relations for optical excitations in\ncarbon nanotubes. Phys. Rev. Lett. 93, 197402 (2004).\n2 Bachilo, S. M. et al. Structure-assigned optical spectra of single-walled carbon nanotubes.\nScience 298, 2361-2366 (2002).\n3 Lefebvre, J., Fraser, J. M., Homma, Y. & Finnie, P. Photoluminescence from single-walled\ncarbon nanotubes: a comparison between suspended and micelle-encapsulated nanotubes.\nAppl. Phys. a-Mater. 78, 1107-1110 (2004).\n© 2012 M acmillan Publishers Limited. All rights reserved.\nM 36\n2 1.72 2 1.75 2 2.13 2 1.88\n3 4 4 3 4 2 3 2 2 2 2 M11\n6 2.30 4 1.69 4 1.72 6 2.43 4 1.78 4 1.88 3 1.46 4 1.91 4 2.07 3 1.51 4 2.03 4 2.29 3 1.61 4 2.14 4 2.53 3 1.71 4 2.26\n6 4 4 6 4 4 6 4 4 6 4 4 3 4 4 3 4 4 3 4 4\nm9 10 10 9 10 10 9 8 8 9 8 8 9 8 8 9 7 7 7 7 7\n10 10 9 10 10 9 10 10 9 10 10 9 8 9 8 8 8 9 9\n10 2.00 10 2.03 10 2.07 10 2.12 10 2.09 10 2.21 9 2.04 10 2.20 10 2.31 9 2.05 10 2.26 10 2.42 9 2.12 10 2.33 10 2.53 9 2.19 10 2.39 9 2.25 8 2.25 9 2.31 10 2.51 8 2.15 9 2.40 8 2.48 9 2.44 8 2.59 9 2.50 7 2.42\nn M S S M S S n-m=0 n-m=1 n-m=2 n-m=3 n-m=4 n-m=5 p1 Ep1(eV) pi: Semiconducting (S) Eii p\n5 3 3.06 1 1.51 1 1.80 1 1.81 1 2.65 p2 Ep2(eV) pi: Metallic (M) S11 1 3 3.06 2 2.58 2 2.43 M p3 Ep3(eV) S22 2 n-m= Epi(eV): data (this experiment) 11\n6 3 2.76 1 1.29 1 1.44 3 2.80 1 1.54 1 2.02 Epi(eV): data (fluorecence experimet) S33 4 3 2.76 2 2.20 2 2.15 2 2.18 S Epi(eV): interpolated value S44 5 n-m=7 M22 6\n7 3 2.49 1 1.12 1 1.23 3 2.67 1 1.32 1 1.62 1 1.53 S55 7 3 2.49 2 1.93 2 1.94 2 2.49 2 2.08 S S66 8 n-m=8 M33 9\n8 3 2.27 1 1.00 1 1.08 3 2.47 1 1.13 1 1.32 3 2.52 1 1.32 1 1.68 S77 10 3 2.27 2 2.02 M n-m=9\n9 3 2.07 1 0.90 1 0.96 3 2.28 1 1.00 1 1.15 3 2.40 1 1.11 1 1.38 3 2.44 3 2.07 2 1.55 2 1.58 3 2.45 2 1.86 2 1.74 2 2.26 2 1.80 S n-m=10\n10 3 1.93 1 0.82 1 0.86 3 2.10 1 0.92 1 1.01 3 2.25 1 1.01 1 1.20 3 2.34 3 1.93 2 1.40 2 1.44 3 2.22 2 1.66 2 1.59 2 1.97 2 1.70 2 2.36 S n-m=11\n3 1.77 2 1.28 2 1.31 3 1.93 2 1.48 1 0.91 3 2.09 1 0.92 1 1.06 3 2.22 1 1.00 1 77. 2 39. 2 53. 2 02. 2 57. 1 46. 2 36. 1 75. 1 58. 2 04. 1 71.\nn-m=12\n12 3 1.64 2 1.18 2 1.21 3 1.78 4 2.41 1 0.80 3 1.95 1 0.85 1 0.94 3 2.08 1 0.92 1 1.08 3 2.20 3 1.64 4 2.23 4 2.35 3 1.84 2 1.33 3 2.14 2 1.57 2 1.46 3 2.48 2 1.82 2 1.57 S n-m=13\n13 3 1.53 4 2.08 4 2.18 3 1.67 4 2.26 4 2.47 3 1.81 4 2.41 1 0.86 3 1.95 1 0.85 1 0.97 3 2.07 2 1.85 3 1.53 5 2.50 5 2.53 3 1.72 3 1.96 2 1.35 3 2.24 2 1.65 2 1.46 3 2.55 S n-m=14\n14 3 1.44 4 1.93 4 2.05 3 1.56 4 2.12 4 2.29 3 1.69 4 2.27 4 2.58 3 1.82 2 1.47 1 0.86 3 1.94 2 1.67 3 1.44 5 2.34 5 2.40 3 1.60 5 2.55 3 1.80 3 2.04 4 2.39 2 1.34 3 2.31 4 2.50 2 1.45 M n-m=15\n15 6 2.52 4 1.86 4 1.94 3 1.47 4 2.00 4 2.13 3 1.59 4 2.14 4 2.38 3 1.71 4 2.27 2 1.25 3 1.82 2 1.51 1 0.89 3 1.94 S6 2.52 5 2.25 5 2.28 3 1.50 5 2.48 5 2.41 3 1.67 5 2.58 3 1.87 4 2.67 3 2.11 4 2.38 2 1.35 3 2.33\nn-m=16\n16 6 2.38 4 1.76 4 1.82 6 2.55 4 1.88 4 2.00 3 1.49 4 2.02 4 2.22 3 1.59 4 2.14 4 2.47 3 1.71 4 2.26 1 0.80 3 1.82 2 1.53 6 2.38 5 2.13 5 2.16 5 2.34 5 2.30 3 1.56 5 2.58 5 2.42 3 1.72 5 2.52 3 1.93 2 1.25 3 2.14 4 2.38 S\n17\nn-m=17\n6 2.30 5 2.03 5 2.05 6 2.50 5 2.21 5 2.18 6 2.55 5 2.42 5 2.30 3 1.61 5 2.41 3 1.79 3 1.97 M\n18\nn-m=18\n6 2.19 4 1.58 4 1.64 6 2.32 4 1.69 4 1.77 6 2.44 4 1.79 4 1.96 3 1.51 4 1.92 4 2.16 3 1.52 4 2.03 4 2.35 3 1.61 4 2.14 4 2.57 3 1.71 6 2.19 5 1.92 5 1.96 6 2.37 5 2.10 5 2.08 6 2.59 5 2.28 5 2.21 6 2.55 5 2.51 5 2.34 3 1.66 5 2.40 3 1.83 3 1.99 S\n19\n7 2.54 n-m=19\n6 2.11 4 1.50 4 1.56 6 2.22 4 1.58 4 1.69 6 2.34 4 1.71 4 1.84 6 2.47 4 1.82 4 2.01 3 1.43 4 1.93 4 2.20 3 1.52 4 2.03 4 2.39 3 1.61 4 2.14 6 2.11 5 1.83 5 1.87 6 2.27 5 1.97 5 1.98 6 2.46 5 2.16 5 2.09 5 2.36 5 2.20 3 1.55 5 2.58 5 2.30 3 1.70 5 2.39 3 1.85 S\n20\n7 2.43 7 2.51 7 2.54 6 2.54 n-m=20\n2 02. 1 44. 1 49. 2 13. 1 54. 1 57. 2 21. 1 63. 1 74. 2 34. 1 73. 1 89. 1 45. 1 85. 2 06. 1 44. 1 93. 2 24. 1 53. 2 03. 2 40. 6 2.02 5 1.76 5 1.80 6 2.17 5 1.91 5 1.87 6 2.31 5 2.05 5 2.00 6 2.54 5 2.22 5 2.11 6 2.44 5 2.44 5 2.20 3 1.58 5 2.30 3 1.72 M\n21\n7 2.34 7 2.41 7 2.48 7 2.57 7 2.56 6 2.52 6 2.59 n-m=21\n6 1.94 5 1.69 5 1.71 6 2.04 4 1.44 4 1.53 6 2.14 4 1.56 4 1.64 6 2.25 4 1.65 4 1.78 6 2.38 4 1.74 4 1.93 3 1.48 4 1.84 4 2.12 3 1.44 4 1.94 4 2.26 3 1.53 6 1.94 7 2.26 7 2.32 6 2.08 5 1.82 5 1.81 6 2.23 5 1.94 5 1.91 6 2.42 5 2.10 5 2.01 6 2.60 5 2.30 5 2.11 6 2.43 5 2.48 5 2.23 3 1.61 5 2.29 3 1.73 S\n22\n8 2.53 8 2.54 7 2.34 7 2.49 7 2.47 7 2.59 6 2.51 6 2.59 n-m=22\n6 1.87 5 1.63 5 1.64 6 1.97 5 1.72 4 1.48 6 2.07 4 1.49 4 1.57 6 2.16 4 1.57 4 1.70 6 2.27 4 1.63 4 1.82 6 2.34 4 1.76 4 1.97 3 1.51 4 1.84 4 2.12 3 1.46 4 1.94 6 1.87 7 2.17 7 2.22 6 2.00 7 2.28 5 1.75 6 2.14 5 1.86 5 1.83 6 2.30 5 2.01 5 1.94 6 2.49 5 2.13 5 2.02 5 2.38 5 2.11 6 2.42 5 2.52 5 2.20 3 1.64 S\n23\n8 2.44 8 2.43 8 2.61 7 2.39 7 2.38 7 2.54 7 2.48 7 2.58 6 2.54 n-m=23\n6 1.80 5 1.56 6 1.85 5 1.66 5 1.67 6 1.98 4 1.42 4 1.49 6 2.08 4 1.60 6 2.17 4 1.62 4 1.72 6 2.26 4 1.69 4 1.87 6 2.37 4 1.76 4 2.00 3 1.52 4 1.85 4 2.13 6 1.80 7 2.09 7 2.14 6 1.92 7 2.19 7 2.28 6 2.05 5 1.78 5 1.75 6 2.20 5 1.92 5 1.84 6 2.36 5 2.04 5 1.92 6 2.54 5 2.23 5 2.04 5 2.38 5 2.11 6 2.42 5 2.54 5 2.20 M\n24\n9 2.52 8 2.34 8 2.36 8 2.49 8 2.46 7 2.29 7 2.43 7 2.40 7 2.48 7 2.57 n-m=24\n6 1.74 5 1.50 6 1.82 5 1.60 5 1.60 6 1.92 5 1.71 5 1.69 6 2.00 4 1.45 6 2.09 4 1.52 4 1.64 6 2.17 4 1.62 4 1.76 6 2.26 4 1.68 4 1.89 3 1.44 4 1.76 4 2.01 3 1.53 6 1.74 7 2.01 7 2.06 6 1.85 7 2.11 7 2.19 6 1.97 7 2.21 7 2.35 6 2.12 5 1.83 5 1.76 6 2.25 5 1.95 5 1.85 6 2.42 5 2.12 5 1.94 6 2.60 5 2.25 5 2.02 6 2.33 5 2.40 5 2.11 6 2.41 S\n25\n9 2.44 8 2.26 8 2.28 9 2.54 8 2.40 8 2.38 8 2.56 8 2.48 7 2.30 7 2.49 7 2.40 7 2.50 7 2.57 n-m=25 6 1.68 5 1.45 5 1.44 6 1.76 5 1.54 5 1.54 6 1.81 5 1.63 5 1.62 6 1.91 5 1.74 6 2.01 4 1.46 4 1.57 6 2.10 4 1.53 4 1.67 6 2.16 4 1.61 4 1.79 6 2.25 4 1.68 4 1.90 3 1.45 4 1.76 6 1.68 7 1.95 7 1.97 6 1.78 7 2.04 7 2.12 6 1.86 7 2.13 7 2.24 6 2.02 7 2.22 5 1.70 6 2.15 5 1.85 5 1.78 6 2.32 5 1.99 5 1.86 6 2.48 5 2.14 5 1.96 5 2.28 5 2.02 6 2.33 5 2.44 S\n26\n9 2.36 8 2.19 8 2.18 9 2.46 8 2.32 8 2.31 9 2.55 8 2.46 8 2.39 7 2.41 7 2.32 7 2.56 7 2.40 7 2.49 7 2.56 n-m=26\n6 1.62 7 1.89 7 1.93 6 1.70 5 1.48 5 1.48 6 1.78 5 1.57 5 1.56 6 1.86 5 1.67 5 1.63 6 1.94 5 1.78 4 1.49 6 2.02 4 1.46 4 1.59 6 2.10 4 1.54 4 1.69 6 2.18 4 1.61 4 1.80 6 2.25 4 1.70 4 1.91 6 1.62 8 2.12 8 2.14 6 1.72 7 1.97 7 2.04 6 1.82 7 2.06 7 2.16 6 1.93 7 2.15 7 2.29 6 2.06 7 2.24 5 1.71 6 2.21 5 1.90 5 1.79 6 2.35 5 2.03 5 1.87 6 2.52 5 2.16 5 1.94 5 2.33 5 2.02 M\n27\n9 2.29 10 2.54 10 2.59 9 2.38 8 2.24 8 2.23 9 2.48 8 2.37 8 2.32 9 2.56 8 2.52 8 2.40 7 2.44 7 2.32 7 2.60 7 2.40 7 2.48 n-m=27\n6 1.57 7 1.83 7 1.86 6 1.64 5 1.43 5 1.43 6 1.70 5 1.51 5 1.50 6 1.79 5 1.60 5 1.57 6 1.87 5 1.70 5 1.65 6 1.95 5 1.82 4 1.53 6 2.04 4 1.47 4 1.61 6 2.09 4 1.54 4 1.71 6 2.18 4 1.61 4 1.81 6 2.25 6 1.57 8 2.05 8 2.07 6 1.67 7 1.91 7 1.98 6 1.75 7 1.99 7 2.08 6 1.86 7 2.07 7 2.20 6 1.98 7 2.16 7 2.34 6 2.10 7 2.25 5 1.74 6 2.25 5 1.93 5 1.80 6 2.40 5 2.06 5 1.87 6 2.57 5 2.18 5 1.94 S\n28\n9 2.23 10 2.46 10 2.52 9 2.30 8 2.17 8 2.17 9 2.39 8 2.29 8 2.24 9 2.49 8 2.42 8 2.33 9 2.57 8 2.57 8 2.41 7 2.50 7 2.33 7 2.40 7 2.48 n-m=28\n6 1.49 7 1.77 7 1.81 6 1.59 7 1.85 7 1.90 6 1.66 5 1.45 5 1.45 6 1.73 5 1.54 5 1.51 6 1.81 5 1.63 5 1.59 6 1.88 5 1.76 4 1.44 6 1.95 5 1.85 4 1.54 6 2.05 4 1.63 6 2.09 4 1.55 4 1.73 6 2.17 4 1.61 6 1.49 8 1.99 8 2.01 6 1.60 8 2.10 8 2.09 6 1.69 7 1.93 7 2.01 6 1.79 7 2.01 7 2.13 6 1.90 7 2.09 7 2.25 6 2.02 7 2.14 5 1.66 6 2.14 7 2.25 5 1.73 6 2.31 5 1.98 5 1.80 6 2.43 5 2.08 5 1.87 6 2.55 5 2.19 S\n29\n2 14. 2 40. 2 45. 2 25. 2 48. 2 57. 2 33. 2 21. 2 17. 2 41. 2 34. 2 25. 2 49. 2 47. 2 33. 2 57. 2 38. 2 53. 2 35. 2 40. 2 48. n- =29\n6 1.48 7 1.72 7 1.75 6 1.53 7 1.79 7 1.84 6 1.61 7 1.85 7 1.94 6 1.67 5 1.48 5 1.46 6 1.74 5 1.57 5 1.53 6 1.82 5 1.66 5 1.60 6 1.87 5 1.77 4 1.47 6 1.96 4 1.42 4 1.56 6 2.00 4 1.48 4 1.65 6 2.12 4 1.55 4 1.73 6 1.48 8 1.94 8 1.95 6 1.56 8 2.03 8 2.03 6 1.64 8 2.12 8 2.11 6 1.73 7 1.94 7 2.05 6 1.83 7 2.02 7 2.18 6 1.93 7 2.10 7 2.29 6 2.05 7 2.18 5 1.66 6 2.18 5 1.87 5 1.73 6 2.33 5 1.98 5 1.82 6 2.45 5 2.09 5 1.87 M\n30\n9 2.10 10 2.33 10 2.38 9 2.16 10 2.41 10 2.50 9 2.26 10 2.48 9 2.34 8 2.26 8 2.19 9 2.42 8 2.38 8 2.28 9 2.50 8 2.54 8 2.34 7 2.42 7 2.25 7 2.56 7 2.33 7 2.40 n-m=30\n6 1.43 7 1.67 7 1.70 6 1.49 7 1.74 7 1.78 6 1.56 7 1.82 7 1.88 6 1.62 5 1.43 7 1.99 6 1.69 5 1.51 5 1.48 6 1.76 5 1.60 5 1.54 6 1.82 5 1.70 5 1.60 6 1.88 5 1.79 4 1.50 6 1.96 4 1.43 4 1.57 6 2.03 4 1.49 4 1.67 6 2.10 6 1.43 8 1.88 8 1.90 6 1.50 8 2.00 8 1.97 6 1.58 8 2.11 8 2.05 6 1.67 7 1.88 8 2.14 6 1.76 7 1.96 7 2.08 6 1.86 7 2.03 7 2.20 6 1.97 7 2.10 7 2.32 6 2.09 7 2.18 5 1.67 6 2.21 5 1.89 5 1.74 6 2.33 5 1.99 5 1.81 6 2.44 S\n31\n9 2.05 10 2.27 10 2.31 9 2.12 10 2.35 10 2.43 9 2.20 10 2.44 10 2.55 9 2.28 8 2.18 9 2.35 8 2.30 8 2.20 9 2.43 8 2.43 8 2.27 9 2.50 8 2.58 8 2.34 9 2.56 7 2.44 7 2.25 7 2.58 7 2.33 n-m=31\n9 1.99 7 1.62 7 1.65 6 1.45 7 1.69 7 1.73 6 1.51 7 1.75 7 1.82 6 1.57 7 1.82 7 1.91 6 1.63 5 1.47 5 1.43 6 1.70 5 1.54 5 1.49 6 1.78 5 1.62 5 1.55 6 1.83 5 1.72 4 1.42 6 1.90 5 1.80 4 1.48 6 1.96 4 1.43 4 1.60 6 2.06 4 1.49 9 1.99 8 1.83 8 1.85 6 1.46 8 1.91 8 1.92 6 1.53 8 2.01 8 1.99 6 1.61 8 2.11 8 2.06 6 1.70 7 1.88 7 2.01 6 1.79 7 1.97 7 2.12 6 1.91 7 2.06 7 2.23 6 2.00 7 2.11 5 1.61 6 2.11 7 2.21 5 1.69 6 2.23 5 1.91 5 1.75 6 2.35 5 2.00 S\n32\n2 21. 2 2. 5 2 06. 2 29. 2 36. 2 14. 2 36. 2 4. 7 2 21. 2 43. 2 60. 2 29. 8 2.24 2 13. 2 36. 2 34. 2 20. 9 2.44 8 2.49 2 2. 7 2 0.5 7 2 36. 2.57 7 2.48 7 2 26. 7 2.58 7 2 33. n-m 32=\n9 1.94 7 1.58 7 1.60 9 2.01 7 1.64 7 1.68 6 1.43 7 1.70 7 1.76 6 1.52 7 1.77 7 1.85 6 1.59 7 1.80 7 1.94 6 1.64 5 1.48 5 1.44 6 1.71 5 1.47 6 1.77 5 1.65 5 1.56 6 1.82 5 1.74 6 1.91 5 1.83 4 1.51 6 1.96 4 1.43 4 1.58 9 1.94 8 1.78 8 1.80 9 2.03 8 1.86 8 1.86 6 1.46 8 1.95 8 1.93 6 1.56 8 2.04 8 2.01 6 1.64 8 2.14 8 2.07 6 1.73 7 1.91 7 2.04 6 1.82 7 1.97 7 2.16 6 1.92 7 2.05 7 2.26 6 2.04 7 2.12 5 1.62 6 2.16 7 2.19 5 1.68 6 2.24 5 1.91 5 1.74 M\n33\n10 2.15 10 2.19 10 2.23 10 2.29 9 2.05 10 2.30 10 2.40 9 2.15 10 2.37 10 2.53 9 2.23 9 2.30 8 2.26 8 2.14 9 2.37 8 2.40 8 2.20 9 2.44 8 2.51 8 2.27 7 2.38 7 2.50 7 2.26 n-m=33\n9 1.89 7 1.54 7 1.56 9 1.96 7 1.59 7 1.63 6 1.42 7 1.65 7 1.70 6 1.48 7 1.72 7 1.79 6 1.53 7 1.78 7 1.88 6 1.59 5 1.43 7 1.97 6 1.65 5 1.50 5 1.45 6 1.72 5 1.58 5 1.50 6 1.78 5 1.69 5 1.56 6 1.84 5 1.75 4 1.45 6 1.90 5 1.84 4 1.52 6 1.96 9 1.89 8 1.73 8 1.75 9 1.97 8 1.81 8 1.81 6 1.44 8 1.89 8 1.86 6 1.51 8 1.98 8 1.94 6 1.59 8 2.08 8 2.01 6 1.67 7 1.85 8 2.08 6 1.76 7 1.92 7 2.07 6 1.85 7 1.99 7 2.18 6 1.95 7 2.06 7 2.29 6 2.05 7 2.12 5 1.62 6 2.15 7 2.19 5 1.68 6 2.24 S\n34\n10 2.10 10 2.14 10 2.17 10 2.23 9 2.03 10 2.24 10 2.32 9 2.09 10 2.32 10 2.45 9 2.17 10 2.38 10 2.57 9 2.24 8 2.19 9 2.31 8 2.30 8 2.15 9 2.37 8 2.42 8 2.21 9 2.44 8 2.54 9 2.50 7 2.40 9 2.56 7 2.51 n-m=34"
  }, {
    "heading": "9 1.84 7 1.50 7 1.52 9 1.91 7 1.55 7 1.59 9 1.97 7 1.61 7 1.66 6 1.43 7 1.67 7 1.73 6 1.49 7 1.73 7 1.82 6 1.55 7 1.80 7 1.91 6 1.60 5 1.45 7 2.00 6 1.66 5 1.52 5 1.45 6 1.72 5 1.60 5 1.51 6 1.78 5 1.68 5 1.56 6 1.84 5 1.76 4 1.45 6 1.90 5 1.84",
    "text": "9 1.84 8 1.69 8 1.70 9 1.92 8 1.76 8 1.76 9 2.01 8 1.84 8 1.83 6 1.46 8 1.92 8 1.89 6 1.54 8 2.02 8 1.96 6 1.61 8 2.11 8 2.02 6 1.69 7 1.86 8 2.09 6 1.78 7 1.93 7 2.10 6 1.87 7 1.99 7 2.21 6 1.97 7 2.06 7 2.31 6 2.07 7 2.12 5 1.62 6 2.16 7 2.19 S\n35\n10 2.05 10 2.08 10 2.12 10 2.17 10 2.18 10 2.27 9 2.04 10 2.25 10 2.38 9 2.11 10 2.32 10 2.49 9 2.18 10 2.39 9 2.24 8 2.22 9 2.31 8 2.33 8 2.15 9 2.38 8 2.45 8 2.21 9 2.44 8 2.57 9 2.50 7 2.41 9 2.56 n-m=35\n9 1.80 7 1.46 7 1.48 9 1.86 7 1.51 7 1.54 9 1.92 7 1.57 7 1.61 6 1.42 7 1.62 7 1.68 6 1.45 7 1.68 7 1.76 6 1.50 7 1.74 7 1.84 6 1.56 7 1.81 7 1.93 6 1.61 5 1.47 7 2.03 6 1.67 7 1.90 5 1.46 6 1.74 5 1.62 5 1.51 6 1.78 5 1.69 5 1.57 6 1.84 5 1.77 4 1.46 9 1.80 8 1.65 8 1.66 9 1.87 8 1.71 8 1.72 9 1.95 8 1.78 8 1.78 9 1.99 8 1.87 8 1.84 6 1.49 8 1.96 8 1.90 6 1.56 8 2.05 8 1.97 6 1.64 8 2.15 8 2.03 6 1.72 7 1.87 8 2.09 6 1.81 8 2.38 7 2.13 6 1.92 7 2.00 7 2.23 6 1.99 7 2.06 7 2.32 6 2.08 7 2.12 5 1.62\n© 2012 M acmillan Publishers Limited. All rights reserved."
  }],
  "year": 2018,
  "references": [{
    "title": "One-dimensional Fermi liquids",
    "authors": ["J. Voit"],
    "venue": "Rep. Prog. Phys. 58,",
    "year": 1995
  }, {
    "title": "Luttinger-liquid behaviour in carbon nanotubes",
    "authors": ["M Bockrath"],
    "venue": "Nature 397,",
    "year": 1999
  }, {
    "title": "the Kondo effect in a one-dimensional host",
    "authors": ["T.W. Odom", "J.L. Huang", "C.L. Cheung", "Lieber", "C.M. Magnetic clusters on single-walled carbon nanotubes"],
    "venue": "Science 290, 1549–1552",
    "year": 2000
  }, {
    "title": "The optical resonances in carbon nanotubes arise from excitons",
    "authors": ["F. Wang", "G. Dukovic", "L.E. Brus", "T.F. Heinz"],
    "venue": "Science 308,",
    "year": 2005
  }, {
    "title": "Physical Properties of Carbon Nanotubes (Imperial",
    "authors": ["R. Saito", "G. Dresselhaus", "M.S. Dresselhaus"],
    "year": 1998
  }, {
    "title": "Probing electronic transitions in individual carbon nanotubes by Rayleigh scattering",
    "authors": ["Sfeir", "M. Y"],
    "venue": "Science 306,",
    "year": 2004
  }, {
    "title": "Optical spectroscopy of individual single-walled carbon nanotubes of defined chiral structure",
    "authors": ["Sfeir", "M. Y"],
    "venue": "Science 312,",
    "year": 2006
  }, {
    "title": "Excitons in carbon nanotubes",
    "authors": ["T. Ando"],
    "venue": "J. Phys. Soc. Jpn 66,",
    "year": 1997
  }, {
    "title": "Ratio problem in single carbon nanotube fluorescence spectroscopy",
    "authors": ["C.L. Kane", "E.J. Mele"],
    "venue": "Phys. Rev. Lett. 90,",
    "year": 2003
  }, {
    "title": "Electron interactions and scaling relations for optical excitations in carbon nanotubes",
    "authors": ["C.L. Kane", "E.J. Mele"],
    "venue": "Phys. Rev. Lett",
    "year": 2004
  }, {
    "title": "Scaling of excitons in carbon nanotubes",
    "authors": ["V. Perebeinos", "J. Tersoff", "P. Avouris"],
    "venue": "Phys. Rev. Lett. 92,",
    "year": 2004
  }, {
    "title": "Excitonic effects and optical spectra of single-walled carbon nanotubes",
    "authors": ["C.D. Spataru", "S. Ismail-Beigi", "L.X. Benedict", "S.G. Louie"],
    "venue": "Phys. Rev. Lett. 92,",
    "year": 2004
  }, {
    "title": "an ab initio symmetry-based approach",
    "authors": ["E. Chang", "G. Bussi", "A. Ruini", "Molinari", "E. Excitons in carbon nanotubes"],
    "venue": "Phys. Rev. Lett. 92, 196401",
    "year": 2004
  }, {
    "title": "Electron–electron interaction effects on the optical excitations of semiconducting single-walled carbon nanotubes",
    "authors": ["H.B. Zhao", "S. Mazumdar"],
    "venue": "Phys. Rev. Lett. 93,",
    "year": 2004
  }, {
    "title": "Observation of excitons in one-dimensional metallic single-walled carbon nanotubes",
    "authors": ["F Wang"],
    "venue": "Phys. Rev. Lett. 99,",
    "year": 2007
  }, {
    "title": "Structure-assigned optical spectra of single-walled carbon nanotubes",
    "authors": ["Bachilo", "S. M"],
    "venue": "Science 298,",
    "year": 2002
  }, {
    "title": "a comparison between suspended and micelleencapsulated nanotubes",
    "authors": ["J. Lefebvre", "J.M. Fraser", "Y. Homma", "Finnie", "P. Photoluminescence from single-walled carbon nanotubes"],
    "venue": "Appl. Phys. A 78, 1107–1110",
    "year": 2004
  }, {
    "title": "environment and temperature effects",
    "authors": ["Fantini", "C. et al. Optical transition energies for carbon nanotubes from resonant Raman spectroscopy"],
    "venue": "Phys. Rev. Lett. 93, 147406",
    "year": 2004
  }, {
    "title": "Chirality distribution and transition energies of carbon nanotubes",
    "authors": ["H Telg"],
    "venue": "Phys. Rev. Lett. 93,",
    "year": 2004
  }, {
    "title": "Third and fourth optical transitions in semiconducting carbon nanotubes",
    "authors": ["Araujo", "P. T"],
    "venue": "Phys. Rev. Lett. 98,",
    "year": 2007
  }, {
    "title": "Two-dimensional gas of massless Dirac fermions in graphene",
    "authors": ["Novoselov", "K. S"],
    "venue": "Nature 438,",
    "year": 2005
  }, {
    "title": "Experimental observation of the quantum Hall effect and Berry’s phase in graphene",
    "authors": ["Y.B. Zhang", "Y.W. Tan", "H.L. Stormer", "P. Kim"],
    "venue": "Nature 438,",
    "year": 2005
  }, {
    "title": "Hybridization effects and metallicity in small radius carbon nanotubes",
    "authors": ["X. Blase", "L.X. Benedict", "E.L. Shirley", "S.G. Louie"],
    "venue": "Phys. Rev. Lett. 72,",
    "year": 1994
  }, {
    "title": "Size, shape, and low energy electronic structure of carbon nanotubes",
    "authors": ["C.L. Kane", "E.J. Mele"],
    "venue": "Phys. Rev. Lett. 78,",
    "year": 1997
  }, {
    "title": "Electronic band structure of isolated and bundled carbon nanotubes",
    "authors": ["S. Reich", "C. Thomsen", "P. Ordejon"],
    "venue": "Phys. Rev. B",
    "year": 2002
  }, {
    "title": "Growth of millimeter-long and horizontally aligned single-walled carbon nanotubes on flat substrates",
    "authors": ["S.M. Huang", "X.Y. Cai", "J. Liu"],
    "venue": "J. Am. Chem",
    "year": 2003
  }, {
    "title": "Intrinsic radial breathing oscillation in suspended single-walled carbon nanotubes",
    "authors": ["Liu", "K. H"],
    "venue": "Phys. Rev. B",
    "year": 2011
  }, {
    "title": "A direct method to determine the chiral indices of carbon nanotubes",
    "authors": ["Z.J. Liu", "Qin", "L-C"],
    "venue": "Chem. Phys. Lett. 408,",
    "year": 2005
  }],
  "id": "SP:99ca248f8a31b7477b52c471846687fd670e19a4",
  "authors": [{
    "name": "Kaihui Liu",
    "affiliations": []
  }, {
    "name": "Jack Deslippe",
    "affiliations": []
  }, {
    "name": "Fajun Xiao",
    "affiliations": []
  }, {
    "name": "Rodrigo B. Capaz",
    "affiliations": []
  }, {
    "name": "Xiaoping Hong",
    "affiliations": []
  }, {
    "name": "Shaul Aloni",
    "affiliations": []
  }, {
    "name": "Alex Zettl",
    "affiliations": []
  }, {
    "name": "Wenlong Wang",
    "affiliations": []
  }, {
    "name": "Xuedong Bai",
    "affiliations": []
  }, {
    "name": "Steven G. Louie",
    "affiliations": []
  }, {
    "name": "Enge Wang",
    "affiliations": []
  }, {
    "name": "Feng Wang",
    "affiliations": []
  }],
  "abstractText": "Electron–electron interactions are significantly enhanced in one-dimensional systems, and single-walled carbon nanotubes provide a unique opportunity for studying such interactions and the related many-body effects in one dimension. However, single-walled nanotubes can have a wide range of diameters and hundreds of different structures, each defined by its chiral index (n,m), where n and m are integers that can have values from zero up to 30 or more. Moreover, one-third of these structures are metals and two-thirds are semiconductors, and they display optical resonances at many different frequencies. Systematic studies of many-body effects in nanotubes would therefore benefit from the availability of a technique for identifying the chiral index of a nanotube based on a measurement of its optical resonances, and vice versa. Here, we report the establishment of a structure–property ‘atlas’ for nanotube optical transitions based on simultaneous electron diffraction measurements of the chiral index and Rayleigh scattering measurements of the optical resonances of 206 different single-walled nanotube structures. The nanotubes, which were suspended across open slit structures on silicon substrates, had diameters in the range 1.3–4.7 nm. We also use this atlas as a starting point for a systematic study of many-body effects in the excited states of single-walled nanotubes. We find that electron–electron interactions shift the optical resonance energies by the same amount for both metallic and semiconducting nanotubes, and that this shift (which corresponds to an effective Fermi velocity renormalization) increases monotonically with nanotube diameter. This behaviour arises from two sources: an intriguing cancellation of long-range electron–electron interaction effects, and the dependence of short-range electron– electron interactions on diameter. The results for three representative single-walled carbon nanotubes are shown in Fig. 1. From the electron diffraction pattern for the first of these nanotubes (Fig. 1a) we determine its chiral index to be (18,7), which means that this is a semiconducting nanotube with a diameter of 1.75 nm. The second nanotube (Fig. 1b) has a chiral index of (30,22), which means that it is also semiconducting (with a diameter of 3.54 nm). The third nanotube (Fig. 1c) has a chiral index of (24,24), which means that it is metallic with a diameter of 3.25 nm. Each nanotube also exhibits distinct optical resonances in its Rayleigh spectrum (Fig. 1d–f). Our data complement previous fluorescence studies of nanotubes with diameters in the range 0.6–1.3 nm (refs 17,18), and together they can be used as an atlas for determining the chiral index of a single-walled nanotube from a measurement of its optical resonances, and vice versa (Supplementary Section S4). A number of techniques can be used to determine the chiral index and optical resonances of single-walled nanotubes (hereafter called nanotubes), but they are all limited in various ways. Fluorescence excitation spectroscopy, for example, allows the chiral index to be determined from measurements of the fluorescence, but only for a small subset of semiconducting nanotubes. Raman spectroscopy is a more general technique, in principle, but it suffers from large uncertainties due to the presence of many overlapping resonant peaks from ensemble measurements. The uncertainty in our determination of the optical resonances for all nanotubes is less than 20 meV. This is significantly more accurate than previous comprehensive optical assignments based on Raman mapping, where the difference between the measured and predicted optical transition energies is greater than 100 meV for many nanotubes. It should be noted that our results are based on suspended nanotubes. It is known that environmental effects, such as the presence of a substrate or surrounding micelles, can redshift the optical transition, predominantly due to dielectric screening. A comparison of nanotubes suspended in air and nanotubes embedded in micelles shows that this redshift is relatively constant at≏20 meV for different nanotubes, and similar redshifts are expected for nanotubes deposited on substrates. Accordingly, a suitable correction should be made when characterizing nanotubes that are not suspended in air. The relationship between the chiral index and the optical resonances of nanotubes reported here allows for a systematic examination of excited-state properties in one-dimensional nanotubes. Although the optical transitions in nanotubes are excitonic in nature, a convenient scheme by which to categorize the optical transitions in an (n,m) nanotube is the zone-folding technique, in which the periodic boundary condition around the nanotube circumference leads to a quantization of wave vector (k), described by parallel lines separated by 2/d in the graphene Brillouin zone. In metallic nanotubes, one of the parallel k-lines passes through the K-point, which occurs when mod(n–m,3)1⁄4 0 (Fig. 2a). The other nanotubes are semiconducting with mod(n–m,3)1⁄4 1 or 2 (Fig. 2b). Each parallel k-line describes one pair of conduction and valence sub-bands in the nanotube. Transitions at the bandgaps of such sub-band pairs lead to strong optical resonances, and these transitions are traditionally labelled Sii for semiconducting and Mii for metallic nanotubes, where i is the sub-band index. Equivalently, we can introduce an integer p (1⁄4 1,2,3,4,5,6, . . .) to index optical transitions in both semiconducting and metallic nanotubes in the order of S11 , S22 , M11 , S33 , S44 , M22 , S55 , S66 , M33 , S77 , . . . (Table 1). Each nanotube optical transition can be associated with a specific wave vector kp (n,m)",
  "title": "An atlas of carbon nanotube optical transitions"
}